^C:\USERS\JYSSO\DESKTOP\SIMPLEGAME\SIMPLEGAME\X64\DEBUG\RENDERER.OBJ|C:\USERS\JYSSO\DESKTOP\SIMPLEGAME\SIMPLEGAME\X64\DEBUG\SCNMGR.OBJ|C:\USERS\JYSSO\DESKTOP\SIMPLEGAME\SIMPLEGAME\X64\DEBUG\SIMPLEGAME.OBJ|C:\USERS\JYSSO\DESKTOP\SIMPLEGAME\SIMPLEGAME\X64\DEBUG\STDAFX.OBJ
C:\USERS\JYSSO\DESKTOP\SIMPLEGAME\X64\DEBUG\SIMPLEGAME.EXE
C:\USERS\JYSSO\DESKTOP\SIMPLEGAME\X64\DEBUG\SIMPLEGAME.ILK
C:\USERS\JYSSO\DESKTOP\SIMPLEGAME\X64\DEBUG\SIMPLEGAME.PDB
^C:\USERS\JYSSO\DESKTOP\겜소공\SIMPLEGAME\SIMPLEGAME\X64\DEBUG\RENDERER.OBJ|C:\USERS\JYSSO\DESKTOP\겜소공\SIMPLEGAME\SIMPLEGAME\X64\DEBUG\SCNMGR.OBJ|C:\USERS\JYSSO\DESKTOP\겜소공\SIMPLEGAME\SIMPLEGAME\X64\DEBUG\SIMPLEGAME.OBJ|C:\USERS\JYSSO\DESKTOP\겜소공\SIMPLEGAME\SIMPLEGAME\X64\DEBUG\STDAFX.OBJ
C:\USERS\JYSSO\DESKTOP\겜소공\SIMPLEGAME\X64\DEBUG\SIMPLEGAME.EXE
C:\USERS\JYSSO\DESKTOP\겜소공\SIMPLEGAME\X64\DEBUG\SIMPLEGAME.ILK
C:\USERS\JYSSO\DESKTOP\겜소공\SIMPLEGAME\X64\DEBUG\SIMPLEGAME.PDB
